<?xml version="1.0" encoding="utf-8"?>
<!-- Generator: Adobe Illustrator 17.0.0, SVG Export Plug-In . SVG Version: 6.00 Build 0)  -->
<!DOCTYPE svg PUBLIC "-//W3C//DTD SVG 1.1//EN" "http://www.w3.org/Graphics/SVG/1.1/DTD/svg11.dtd">
<svg version="1.1" id="Layer_1" xmlns="http://www.w3.org/2000/svg" xmlns:xlink="http://www.w3.org/1999/xlink" x="0px" y="0px"
	 width="200px" height="35px" viewBox="0 0 200 35" enable-background="new 0 0 200 35" xml:space="preserve">
<g>
	<path fill="#6D6E70" d="M48.526,4.461h10.539c2.725,0,5.117,0.32,7.176,0.96c2.057,0.64,3.768,1.547,5.131,2.723
		c1.363,1.175,2.385,2.592,3.068,4.25c0.681,1.66,1.022,3.507,1.022,5.544v0.078c0,2.037-0.348,3.905-1.042,5.602
		c-0.694,1.697-1.743,3.16-3.145,4.388c-1.403,1.228-3.146,2.181-5.23,2.86c-2.084,0.679-4.516,1.018-7.294,1.018H48.526V4.461z
		 M59.261,23.892c2.124,0,3.808-0.451,5.053-1.351c1.245-0.901,1.868-2.345,1.868-4.329v-0.078c0-1.985-0.623-3.427-1.868-4.329
		c-1.245-0.901-2.929-1.352-5.053-1.352h-1.534v11.439H59.261z"/>
	<rect x="76.09" y="4.461" fill="#6D6E70" width="9.201" height="27.423"/>
	<polygon fill="#6D6E70" points="86.549,4.461 96.144,4.461 102.042,14.099 107.941,4.461 117.534,4.461 117.534,31.884 
		108.373,31.884 108.373,18.291 102.023,28.044 101.866,28.044 95.514,18.291 95.514,31.884 86.549,31.884 	"/>
	<polygon fill="#6D6E70" points="118.714,4.461 142.19,4.461 142.19,11.983 127.759,11.983 127.759,14.765 141.207,14.765 
		141.207,21.386 127.759,21.386 127.759,24.362 142.387,24.362 142.387,31.884 118.714,31.884 	"/>
	<path fill="#6D6E70" d="M156.541,32.471c-1.913,0-3.729-0.339-5.446-1.019c-1.717-0.679-3.231-1.645-4.542-2.899
		c-1.312-1.255-2.353-2.756-3.126-4.506c-0.773-1.748-1.16-3.681-1.16-5.797v-0.078c0-2.038,0.374-3.931,1.12-5.681
		c0.748-1.75,1.782-3.265,3.107-4.545c1.324-1.279,2.876-2.278,4.659-2.997c1.783-0.718,3.697-1.078,5.741-1.078
		c1.52,0,2.916,0.177,4.188,0.529c1.271,0.352,2.424,0.842,3.46,1.469c1.035,0.626,1.952,1.377,2.752,2.252
		c0.8,0.875,1.488,1.835,2.065,2.88l-7.59,4.427c-0.524-0.993-1.173-1.795-1.946-2.41c-0.774-0.613-1.789-0.92-3.048-0.92
		c-0.786,0-1.493,0.157-2.122,0.47c-0.63,0.314-1.167,0.745-1.613,1.293c-0.446,0.548-0.793,1.188-1.042,1.92
		c-0.25,0.731-0.373,1.503-0.373,2.311v0.079c0,0.888,0.124,1.703,0.373,2.448c0.248,0.745,0.603,1.384,1.061,1.92
		c0.459,0.535,1.004,0.953,1.632,1.253c0.629,0.301,1.324,0.451,2.084,0.451c1.311,0,2.36-0.32,3.147-0.96
		c0.786-0.64,1.468-1.469,2.044-2.488l7.589,4.268c-0.577,1.02-1.258,1.979-2.045,2.88c-0.785,0.901-1.711,1.685-2.772,2.351
		c-1.061,0.664-2.267,1.195-3.618,1.586C159.772,32.276,158.246,32.471,156.541,32.471"/>
	<path fill="#6D6E70" d="M178.954,4.266h9.123l11.599,27.618h-9.988l-1.454-3.683H178.6l-1.415,3.683h-9.831L178.954,4.266z
		 M185.953,21.7l-2.517-6.661l-2.516,6.661H185.953z"/>
	<path fill="#6D6E70" d="M195.418,11.342c-0.438,0-0.847-0.082-1.227-0.246c-0.38-0.165-0.71-0.388-0.99-0.67
		c-0.279-0.282-0.5-0.612-0.66-0.99c-0.162-0.377-0.243-0.778-0.243-1.205V8.214c0-0.427,0.081-0.829,0.243-1.206
		c0.161-0.377,0.383-0.709,0.665-0.994c0.282-0.285,0.615-0.511,0.997-0.679c0.384-0.167,0.794-0.25,1.232-0.25
		c0.438,0,0.847,0.083,1.227,0.247c0.38,0.164,0.71,0.387,0.989,0.67c0.279,0.282,0.5,0.612,0.661,0.989
		c0.162,0.378,0.243,0.78,0.243,1.206v0.018c0,0.427-0.081,0.828-0.243,1.205c-0.161,0.378-0.383,0.709-0.666,0.994
		c-0.281,0.286-0.614,0.512-0.997,0.679C196.266,11.259,195.856,11.342,195.418,11.342 M195.418,10.814
		c0.371,0,0.714-0.068,1.03-0.205c0.315-0.138,0.587-0.323,0.82-0.558c0.232-0.234,0.413-0.51,0.544-0.827
		c0.132-0.318,0.198-0.655,0.198-1.009V8.198c0-0.355-0.066-0.69-0.198-1.005c-0.132-0.316-0.312-0.59-0.541-0.824
		c-0.228-0.234-0.5-0.418-0.815-0.553c-0.315-0.134-0.655-0.201-1.021-0.201c-0.372,0-0.716,0.068-1.03,0.206
		c-0.315,0.137-0.588,0.323-0.818,0.557c-0.232,0.234-0.414,0.51-0.546,0.828c-0.132,0.317-0.199,0.654-0.199,1.009V8.23
		c0,0.356,0.065,0.691,0.194,1.005c0.129,0.316,0.31,0.59,0.541,0.824c0.232,0.234,0.505,0.419,0.82,0.553
		C194.712,10.747,195.052,10.814,195.418,10.814 M194.138,6.46h1.478c0.444,0,0.786,0.121,1.029,0.363
		c0.184,0.185,0.276,0.427,0.276,0.726v0.017c0,0.272-0.066,0.49-0.198,0.657c-0.133,0.167-0.306,0.291-0.519,0.371l0.812,1.193
		h-0.855l-0.709-1.072h-0.017h-0.562v1.072h-0.735V6.46z M195.608,8.084c0.184,0,0.325-0.044,0.423-0.134
		c0.098-0.089,0.148-0.203,0.148-0.341V7.592c0-0.162-0.052-0.283-0.156-0.364c-0.103-0.081-0.248-0.121-0.433-0.121h-0.716v0.976
		H195.608z"/>
	<polygon fill="#026937" points="13.045,2.529 0.323,32.433 9.496,32.433 22.216,2.529 	"/>
	<path fill="#FFCE00" d="M36.165,15.13c-1.61,2.307-4.308,3.819-7.366,3.819c-3.058,0-5.755-1.512-7.365-3.819l-7.481,17.303h29.694
		L36.165,15.13z M28.8,15.106c3.193,0,5.781-2.59,5.781-5.786c0-3.196-2.588-5.787-5.781-5.787c-3.193,0-5.781,2.591-5.781,5.787
		C23.019,12.516,25.607,15.106,28.8,15.106"/>
</g>
</svg>
